2	0.98	0.018	0.002	0	0	0
3	0.954	0.043	0.003	0	0	0
4	0.949	0.05	0	0.001	0	0
5	0.926	0.068	0.003	0.002	0	0.001
6	0.91	0.087	0.002	0	0	0.001
7	0.907	0.085	0.007	0.001	0	0
8	0.896	0.099	0.004	0.001	0	0
9	0.875	0.109	0.012	0.002	0	0.002
10	0.878	0.113	0.006	0.003	0	0
20	0.818	0.172	0.005	0.004	0	0.001
30	0.766	0.217	0.005	0.012	0	0
40	0.761	0.218	0.006	0.011	0	0.004
50	0.75	0.23	0.008	0.012	0	0
60	0.726	0.247	0.011	0.014	0	0.002
70	0.723	0.254	0.007	0.015	0	0.001
80	0.693	0.281	0.01	0.015	0	0.001
90	0.675	0.297	0.007	0.021	0	0
100	0.702	0.28	0.007	0.011	0	0
