4103788
511400
455125
2847663
423745
1602410
557555
630555
662835
2774510
422781
898913
5890583
2950137
643717
631824
609599
337882
343059
1119216
911230
3246492
6914660
461540
1074724
577186
1315568
637158
376426
788739
482244
1258639
1372786
552858
434249
1122912
725444
1455727
318051
383568
523809
300623
397311
592037
1775143
2324220
1894137
621978
1182642
766739
173477
389318
638394
806081
1070172
3313315
1647656
4257186
1098288
658740
6043618
1297960
379405
1749655
8031792
576833
996486
1110167
5004357
439938
3782256
446980
3346500
833197
3847438
1793187
28490
6861654
415809
1425122
11914471
422325
1287422
5534982
2814080
2678804
378891
65849032
3297078
1550669
1111821
252831
255427
237326
