R_rxn00802,0
R_rxn08851,0
R_rxn10318,0
R_rxn03638,0
R_rxn00868,0
R_rxn00225,0
R_rxn12008,0
R_rxn01674,0
R_rxn12636,0
R_rxn12644,0
R_rxn05536,0
R_rxn08800,0
R_rxn01387,2
R_rxn08823,0
R_rxn05544,0
R_rxn05549,0
R_rxn05616,0
R_rxn08527,0
R_rxn12848,0
R_rxn00369,0
R_rxn03419,0
R_rxn05408,0
R_rxn02160,0
R_rxn10295,0
R_rxn05614,0
R_rxn03052,1
R_rxn09692,0
R_rxn01685,0
R_rxn00883,0
R_rxn01923,0
R_rxn05734,0
R_rxn01302,0
R_rxn05448,0
R_rxn07584,0
R_rxn03164,0
R_rxn05298,0
R_rxn01370,0
R_rxn01258,0
R_rxn05229,0
R_rxn02302,0
R_rxn12637,0
R_rxn10011,0
R_rxn08807,0
R_rxn08297,0
R_rxn00902,0
R_rxn03852,0
R_rxn08809,0
R_rxn00503,2
R_rxn05187,0
R_rxn05328,0
R_rxn02853,0
R_rxn00459,0
R_rxn00405,0
R_rxn10277,0
R_rxn05031,0
R_rxn10225,0
R_rxn10259,0
R_rxn01011,0
R_rxn05316,0
R_rxn08311,0
R_rxn10288,0
R_rxn01492,0
R_rxn08844,0
R_rxn00302,0
R_rxn05315,0
R_rxn01277,0
R_rxn05145,0
R_rxn05460,0
R_rxn10281,0
R_rxn10199,0
R_rxn01706,0
R_rxn02937,0
R_rxn00649,0
R_rxn10806,0
R_rxn01763,0
R_rxn05579,0
R_rxn12851,0
R_rxn01446,0
R_rxn05346,0
R_rxn10324,0
R_rxn10340,0
R_rxn00512,0
R_rxn00143,1
R_rxn00324,0
R_rxn05305,0
R_rxn01200,0
R_rxn05232,0
R_rxn01073,0
R_rxn05175,0
R_rxn08294,0
R_rxn00604,0
R_rxn05958,0
R_rxn12844,0
R_rxn01678,0
R_rxn08814,0
R_rxn01332,0
R_rxn08816,0
R_rxn05567,0
R_rxn06377,3
R_rxn05149,0
R_rxn00206,0
R_rxn10297,0
R_rxn02933,0
R_rxn01018,2
R_rxn10121,0
R_rxn09310,0
R_rxn03175,0
R_rxn00829,0
R_rxn00157,0
R_rxn10292,0
R_rxn01518,0
R_rxn05649,0
R_rxn00786,0
R_rxn02318,0
R_rxn10320,0
R_rxn08803,0
R_rxn09674,0
R_rxn12640,0
R_rxn10865,0
R_rxn06510,0
R_rxn05596,0
R_rxn10278,0
R_rxn01489,0
R_rxn05733,0
R_rxn05350,0
R_rxn07430,0
R_rxn10255,0
R_rxn02166,0
R_rxn00183,0
R_rxn04750,0
R_rxn00710,2
R_rxn05539,0
R_rxn05437,0
R_rxn10280,0
R_rxn00545,0
R_rxn08840,0
R_rxn05249,0
R_rxn01649,0
R_rxn05184,0
R_rxn03856,0
R_rxn04674,0
R_rxn01301,0
R_rxn05396,0
R_rxn13782,0
R_rxn10334,0
R_rxn05363,0
R_rxn01682,0
R_rxn02474,0
R_rxn05324,0
R_rxn01486,0
R_rxn05464,0
R_rxn08822,0
R_rxn05359,0
R_rxn00898,0
R_rxn05322,0
R_rxn02113,0
R_rxn00117,0
R_rxn07435,0
R_rxn05458,0
R_rxn05453,0
R_rxn05541,0
R_rxn08298,0
R_rxn00260,3
R_rxn05219,0
R_rxn02484,0
R_rxn10296,0
R_rxn01114,0
R_rxn05367,0
R_rxn13783,0
R_rxn09111,0
R_rxn09188,2
R_rxn08847,0
R_rxn01974,0
R_rxn03244,0
R_rxn12645,0
R_rxn02008,0
R_rxn05443,0
R_rxn02155,0
R_rxn00915,0
R_rxn00299,0
R_rxn00839,0
R_rxn00461,0
R_rxn05434,0
R_rxn00283,0
R_rxn01508,0
R_rxn00953,1
R_rxn10337,0
R_rxn10273,0
R_rxn08812,0
R_rxn05417,0
R_rxn00938,0
R_rxn12822,3
R_rxn10221,0
R_rxn03437,0
R_rxn00882,0
R_rxn01648,3
R_rxn10014,0
R_rxn10126,0
R_rxn05193,0
R_rxn08808,0
R_rxn03901,0
R_rxn05202,0
R_rxn05226,0
R_rxn05537,0
R_rxn08806,0
R_rxn00849,0
R_rxn05560,0
R_rxn00303,0
R_rxn01434,0
R_rxn00122,0
R_rxn01116,0
R_rxn03908,0
R_rxn05436,0
R_rxn08308,0
R_rxn00409,0
R_rxn08841,0
R_rxn01986,0
R_rxn05207,0
R_rxn07434,0
R_rxn02213,0
R_rxn08669,0
R_rxn02200,0
R_rxn00616,0
R_rxn04308,0
R_rxn03062,0
R_rxn01171,0
R_rxn00506,0
R_rxn01388,0
R_rxn05421,0
R_rxn01791,0
R_rxn05578,0
R_rxn00029,0
R_rxn10319,0
R_rxn01143,0
R_rxn01975,0
R_rxn10338,0
R_rxn09687,0
R_rxn10263,0
R_rxn05647,0
R_rxn01964,0
R_rxn10113,0
R_rxn00559,0
R_rxn10341,0
R_rxn12510,0
R_rxn01516,0
R_rxn05392,0
R_rxn05231,0
R_rxn08900,0
R_rxn00474,0
R_rxn09114,0
R_rxn05582,0
R_rxn08815,0
R_rxn01673,0
R_rxn12845,0
R_rxn00085,0
R_rxn08817,0
R_rxn05317,0
R_rxn01219,2
R_rxn10287,0
R_rxn10192,0
R_rxn08799,0
R_rxn01021,0
R_rxn05543,0
R_rxn01127,0
R_rxn08309,0
R_rxn03892,0
R_rxn08312,0
R_rxn10271,0
R_rxn05144,0
R_rxn12849,0
R_rxn00772,0
R_rxn00410,0
R_rxn05160,0
R_rxn05221,0
R_rxn01013,0
R_rxn00395,0
R_rxn10256,0
R_rxn01607,0
R_rxn00171,0
R_rxn01000,0
R_rxn01138,0
R_rxn01867,0
R_rxn05148,0
R_rxn02296,0
R_rxn05533,0
R_rxn08838,0
R_rxn12641,0
R_rxn08821,0
R_rxn00239,0
R_rxn00612,0
R_rxn00711,0
R_rxn12633,0
R_rxn05250,0
R_rxn06023,0
R_rxn00499,0
R_rxn05024,0
R_rxn10191,0
R_rxn08850,0
R_rxn03174,0
R_rxn00146,0
R_rxn06586,0
R_rxn00763,0
R_rxn10174,0
R_rxn00138,0
R_rxn01515,0
R_rxn02831,0
R_rxn03397,0
R_rxn03136,0
R_rxn05165,0
R_rxn00216,0
R_rxn05440,0
R_rxn00988,0
R_rxn08557,0
R_rxn10321,0
R_rxn05605,0
R_rxn05617,0
R_rxn05236,0
R_rxn05581,0
R_rxn00726,0
R_rxn05159,0
R_rxn05287,0
R_rxn05345,0
R_rxn02177,0
R_rxn03147,0
R_rxn01211,0
R_rxn08802,0
R_rxn01602,0
R_rxn00670,0
R_rxn10335,0
R_rxn08848,0
R_rxn05444,0
R_rxn00650,0
R_rxn01241,1
R_rxn08300,0
R_rxn00836,0
R_rxn00776,0
R_rxn09110,0
R_rxn12646,0
R_rxn09296,2
R_rxn01255,0
R_rxn01360,2
R_rxn05433,0
R_rxn10274,0
R_rxn05465,0
R_rxn05452,0
R_rxn10010,0
R_rxn10222,0
R_rxn00392,0
R_rxn00758,0
R_rxn10284,0
R_rxn02287,0
R_rxn02475,0
R_rxn08295,0
R_rxn05312,0
R_rxn02774,0
R_rxn05325,0
R_rxn01510,0
R_rxn00471,0
R_rxn00441,1
R_rxn01485,0
R_rxn13784,0
R_rxn10184,0
R_rxn01291,0
R_rxn01987,0
R_rxn05571,0
R_rxn05540,0
R_rxn01629,0
R_rxn00552,0
R_rxn05669,0
R_rxn01548,0
R_rxn05449,0
R_rxn05459,0
R_rxn05313,0
R_rxn01451,0
R_rxn00785,0
R_rxn08842,0
R_rxn05323,0
R_rxn03084,0
R_rxn10195,0
R_rxn00011,0
R_rxn00292,0
R_rxn05252,0
R_rxn05466,0
R_rxn08707,0
R_rxn02476,0
R_rxn02112,0
R_rxn01870,0
R_rxn02342,0
R_rxn00745,2
R_rxn00973,0
R_rxn05181,0
R_rxn01985,0
R_rxn00775,0
R_rxn00364,2
R_rxn01444,0
R_rxn00515,0
R_rxn09113,0
R_rxn12846,0
R_rxn10283,0
R_rxn10322,0
R_rxn08976,0
R_rxn02789,0
R_rxn05383,0
R_rxn08180,0
R_rxn10042,0
R_rxn05505,0
R_rxn00800,0
R_rxn01343,0
R_rxn01520,3
R_rxn05234,0
R_rxn08783,0
R_rxn10286,0
R_rxn00322,0
R_rxn05441,0
R_rxn10342,0
R_rxn08792,0
R_rxn08818,0
R_rxn02314,0
R_rxn05307,0
R_rxn01465,2
R_rxn10279,0
R_rxn09449,0
R_rxn10168,0
R_rxn10272,0
R_rxn08810,0
R_rxn03248,0
R_rxn08307,0
R_rxn02201,0
R_rxn05555,0
R_rxn00742,0
R_rxn10316,0
R_rxn00056,1
R_rxn00727,0
R_rxn03891,0
R_rxn06076,0
R_rxn05413,0
R_rxn05348,0
R_rxn02914,0
R_rxn10013,0
R_rxn10264,0
R_rxn05445,0
R_rxn00621,0
R_rxn01313,0
R_rxn00715,0
R_rxn01647,0
R_rxn12642,0
R_rxn05198,0
R_rxn00881,0
R_rxn05247,0
R_rxn09688,0
R_rxn02504,0
R_rxn05493,0
R_rxn08975,0
R_rxn05215,0
R_rxn10293,0
R_rxn05534,0
R_rxn05732,0
R_rxn08556,0
R_rxn00912,0
R_rxn05446,0
R_rxn05618,0
R_rxn05435,0
R_rxn01358,0
R_rxn00692,0
R_rxn09108,0
R_rxn00566,0
R_rxn07431,0
R_rxn08299,0
R_rxn00002,0
R_rxn08971,0
R_rxn12634,0
R_rxn05456,0
R_rxn10261,0
R_rxn00300,0
R_rxn00907,0
R_rxn01269,0
R_rxn00278,3
R_rxn06673,0
R_rxn01169,0
R_rxn08296,0
R_rxn05569,0
R_rxn08805,0
R_rxn00060,0
R_rxn00006,0
R_rxn03239,0
R_rxn12639,0
R_rxn03080,0
R_rxn05150,0
R_rxn05199,0
R_rxn02297,0
R_rxn05040,0
R_rxn05326,0
R_rxn08813,0
R_rxn09562,0
R_rxn00799,0
R_rxn05455,0
R_rxn11944,1
R_rxn11268,0
R_rxn05344,0
R_rxn00676,0
R_rxn10339,0
R_rxn03246,0
R_rxn00837,0
R_rxn05248,0
R_rxn08901,0
R_rxn08796,0
R_rxn03242,0
R_rxn10223,0
R_rxn01459,0
R_rxn00256,0
R_rxn02503,0
R_rxn05349,0
R_rxn00285,3
R_rxn08845,0
R_rxn10275,0
R_rxn04794,0
R_rxn01334,0
R_rxn05192,0
R_rxn05200,0
R_rxn00770,3
R_rxn00611,0
R_rxn00145,0
R_rxn00182,1
R_rxn02788,0
R_rxn05388,0
R_rxn08849,0
R_rxn05429,0
R_rxn00543,0
R_rxn10052,0
R_rxn05235,0
R_rxn00097,3
R_rxn00126,1
R_rxn00414,0
R_rxn05547,0
R_rxn06937,0
R_rxn00980,0
R_rxn05244,0
R_rxn10285,0
R_rxn01868,0
R_rxn05546,0
R_rxn08801,0
R_rxn00740,0
R_rxn05251,0
R_rxn00712,0
R_rxn05516,0
R_rxn05608,0
R_rxn02938,0
R_rxn05439,0
R_rxn01128,0
R_rxn05644,0
R_rxn10290,0
R_rxn00224,0
R_rxn00139,1
R_rxn05451,0
R_rxn05736,0
R_rxn10253,0
R_rxn00792,0
R_rxn03904,0
R_rxn02465,0
R_rxn08335,0
R_rxn03030,0
R_rxn08820,0
R_rxn01679,0
R_rxn01257,0
R_rxn05292,0
R_rxn05613,0
R_rxn01265,0
R_rxn01740,0
R_rxn01217,2
R_rxn05504,0
R_rxn12847,0
R_rxn05371,0
R_rxn05347,0
R_rxn00165,0
R_rxn09112,0
R_rxn01129,0
R_rxn00947,0
R_rxn05400,0
R_rxn10343,0
R_rxn05188,0
R_rxn08793,0
R_rxn05233,0
R_rxn05442,0
R_rxn08819,0
R_rxn00297,0
R_rxn00065,0
R_rxn05425,0
R_rxn01314,0
R_rxn01859,0
R_rxn00337,1
R_rxn02945,0
R_rxn05602,0
R_rxn01366,2
R_rxn01512,0
R_rxn01466,0
R_rxn00500,0
R_rxn05358,0
R_rxn01106,0
R_rxn01816,1
R_rxn08811,0
R_rxn02804,0
R_rxn00293,0
R_rxn05542,0
R_rxn01480,0
R_rxn10194,0
R_rxn01951,0
R_rxn00974,0
R_rxn05485,0
R_rxn01646,0
R_rxn09685,0
R_rxn03004,0
R_rxn02277,0
R_rxn10147,0
R_rxn05735,0
R_rxn12638,0
R_rxn12643,0
R_rxn10291,0
R_rxn08558,0
R_rxn05180,0
R_rxn02264,0
R_rxn03903,0
R_rxn00985,0
R_rxn00440,0
R_rxn05447,0
R_rxn07432,0
R_rxn06335,0
R_rxn05209,0
R_rxn08306,0
R_rxn00709,0
R_rxn05535,0
R_rxn08804,0
R_rxn00874,0
R_rxn05197,0
R_rxn06600,3
R_rxn10294,0
R_rxn05438,0
R_rxn09109,0
R_rxn02322,0
R_rxn08839,0
R_rxn10258,0
R_rxn03249,0
R_rxn00368,0
R_rxn09448,0
R_rxn01851,0
R_rxn03421,0
R_rxn08843,0
R_rxn12635,0
R_rxn10317,0
R_rxn05409,0
R_rxn10131,0
R_rxn00743,2
R_rxn10282,0
R_rxn00173,0
R_rxn08528,0
R_rxn01509,0
R_rxn00789,0
R_rxn10481,0
R_rxn06077,0
R_rxn01115,0
R_rxn02312,0
R_rxn06075,0
R_rxn05327,0
R_rxn10276,0
R_rxn10344,0
R_rxn00365,0
R_rxn05318,0
R_rxn10474,0
R_rxn05404,0
R_rxn08798,0
R_rxn08797,0
R_rxn01102,0
R_rxn10336,0
R_rxn10257,0
R_rxn02005,0
R_rxn01653,0
R_rxn01362,2
R_rxn08846,0
R_rxn05450,0
R_rxn06493,3
R_rxn03243,0
R_rxn05375,0
R_rxn10224,0
R_rxn02811,0
R_rxn05939,2
R_rxn10262,0
R_rxn01286,0
R_rxn05610,0
R_rxn00199,0
R_rxn01705,0
R_rxn01019,0
R_rxn00412,0
R_rxn03167,0
R_rxn05457,0
R_rxn10094,0
R_rxn08310,0
R_rxn05655,0
R_rxn09272,0
R_rxn00686,3
R_rxn05494,0
R_rxn10120,0
R_rxn05170,0
R_rxn12850,0
R_rxn03843,0
R_rxn00778,3
R_rxn10260,0
R_rxn06672,0
R_rxn05177,0
R_rxn01353,0
R_rxn10289,0
R_rxn00247,2
R_rxn05379,0
R_rxn05667,0
R_rxn09450,0
R_rxn01213,0
R_rxn05384,0
R_rxn10196,0
R_rxn01100,0
R_rxn05163,0
R_rxn05515,0
R_rxn05607,0
R_rxn06777,0
R_rxn00178,0
R_rxn10254,0
R_rxn05545,0
R_rxn02339,0
R_rxn02175,0
R_rxn07433,0
R_rxn01544,0
R_rxn00713,0
R_rxn00288,0
R_rxn10012,0
R_rxn05183,0
R_rxn01925,0
R_rxn01790,0
R_rxn00935,0
R_rxn10323,0
R_rxn03075,0
R_rxn05528,0
R_rxn01872,1
R_rxn05538,0
R_rxn02359,0
R_rxn00707,0
R_rxn02285,0
R_rxn03108,0
R_rxn05146,0
R_rxn01799,0
R_rxn10118,0
R_rxn00237,0
R_rxn05517,0
R_rxn01068,0
R_rxn00114,2
R_rxn00420,0
R_rxn00001,3
R_rxn01476,0
R_rxn01268,0
R_rxn08336,0
R_rxn10770,0
R_rxn02898,0
R_rxn05501,0
R_rxn10220,0
R_rxn03907,0
R_rxn02268,0
R_rxn05454,0
R_rxn00101,0
R_rxn02376,1
R_rxn02680,0
R_rxn05343,0
R_rxn05243,0
R_rxn05205,0
R_rxn10571,0
R_rxn05195,0
R_rxn00062,0
R_rxn01208,0
R_rxn04132,0
R_rxn04133,0
R_rxn05319,0
R_rxn05467,0
R_rxn05468,0
R_rxn02374,0
R_rxn05116,0
R_rxn03012,0
R_rxn05064,0
R_rxn02666,0
R_rxn04457,0
R_rxn04456,0
R_rxn01664,0
R_rxn02916,0
R_rxn05361,0
R_rxn05398,0
R_rxn11703,0
R_rxn08333,0
R_rxn05386,0
R_rxn06848,0
R_rxn05402,0
R_rxn09225,0
R_rxn08712,0
R_rxn08954,0
R_rxn05394,0
R_rxn05365,0
R_rxn08583,0
R_rxn08619,0
R_rxn05373,0
R_rxn05390,0
R_rxn05029,0
R_rxn00966,0
R_rxn08713,0
R_rxn02897,0
R_rxn12224,0
R_rxn05381,0
R_rxn08620,0
R_rxn12933,0
R_rxn02056,0
R_rxn05369,0
R_rxn04139,0
R_rxn03537,0
R_rxn04413,0
R_rxn03919,0
R_rxn08709,0
R_rxn08708,0
R_rxn05406,0
R_rxn03538,0
R_rxn08618,0
R_rxn05377,0
R_Ex_cpd00027,0
R_Ex_cpd00035,0
R_Ex_cpd00033,0
R_Ex_cpd00322,0
R_Ex_cpd00051,0
R_Ex_cpd00156,0
R_Ex_cpd00129,0
R_Ex_cpd00367,0
R_Ex_cpd00009,0
R_Ex_cpd00048,0
R_Ex_cpd00133,0
R_Ex_cpd10515,0
R_Ex_cpd10516,0
R_Ex_cpd00007,0
R_Ex_cpd00305,0
R_Biomass,0
R_rxn00048,0
R_rxn00096,0
R_rxn00137,0
R_rxn00141,0
R_rxn00257,0
R_rxn00339,0
R_rxn00491,0
R_rxn00541,0
R_rxn00555,0
R_rxn00623,0
R_rxn00791,0
R_rxn00804,0
R_rxn00830,0
R_rxn00858,0
R_rxn00859,0
R_rxn01256,0
R_rxn01304,0
R_rxn01454,0
R_rxn01500,0
R_rxn01577,0
R_rxn01603,0
R_rxn01643,0
R_rxn01644,0
R_rxn01736,0
R_rxn01739,0
R_rxn01972,0
R_rxn02212,0
R_rxn02246,0
R_rxn02288,0
R_rxn02303,0
R_rxn02320,0
R_rxn02473,0
R_rxn02507,0
R_rxn02508,0
R_rxn02834,0
R_rxn02835,0
R_rxn02928,0
R_rxn03086,0
R_rxn03135,0
R_rxn03841,0
R_rxn05039,0
R_rxn05269,0
R_rxn05285,0
R_rxn05794,0
R_rxn05909,0
R_rxn06022,0
R_rxn06591,0
R_rxn07207,0
R_rxn09180,0
R_rxn10059,0
R_rxn10887,0
R_rxn11180,0
R_rxn11207,0
R_rxn12215,0
R_rxn12854,0
R_rxn13085,0
R_rxn13698,0
R_Ex_cpd01981[c],0
R_Ex_cpd00834[c],0
R_Ex_cpd00307[c],0
R_Ex_cpd02851[c],0
R_Ex_cpd00229[c],0
R_rxn00378,0
R_rxn00487,0
R_rxn00548,0
R_rxn02304,0
R_rxn02929,0
R_rxn05289,0
R_rxn05902,0
R_rxn09532,0
R_rxn10056,0
R_rxn10410,0
R_rxn11274,0
R_Ex_cpd00147[c],0
R_Ex_cpd02227[c],0
